ID	Symbols	Sites	Effects	TNBC	noTNBC
X1433EPSILON	YWHAE			-0.159875692307692	-0.0659381818181818
X4EBP1	EIF4EBP1			0.53527575	0.5353124
X4EBP1_pS65	EIF4EBP1	S65		1.04572307692308	0.890741909090909
X4EBP1_pT37T46	EIF4EBP1	T37|T46		1.75889384615385	1.64185454545455
X53BP1	TP53BP1			-0.354745545454545	-0.651534111111111
ACC_pS79	ACACA	S79		-0.178591338461538	0.246277363636364
ACC1	ACACA			0.644750769230769	0.921277290909091
AKT	AKT1			0.0639480769230769	0.228702363636364
AKT_pS473	AKT1	S473		1.57360615384615	0.848792727272727
AKT_pT308	AKT1	T308		1.19348846153846	0.513835363636364
AMPKALPHA	PRKAA1			-0.37694425	-0.514869090909091
AMPK_pT172	PRKAA1	T172		-0.898628384615385	-0.972104545454545
AR	AR			-0.619850833333333	0.825644222222222
ASNS	ASNS			1.7644	1.07468
ATM	ATM			-0.302713145454545	-0.748180677777778
BAK	BAK1			-0.344431538461538	-0.208458727272727
BAX	BAX			-0.715365833333333	-0.915121818181818
BCL2	BCL2			-0.872389166666667	-0.608200111111111
BCLXL	BCL2L1			-0.066254	-0.111709090909091
BECLIN	BECN1			-0.206391333333333	-0.0445857444444444
BETACATENIN	CTNNB1			-0.243249230769231	-1.24123818181818
BID	BID			-0.379583076923077	-0.334277727272727
BIM	BCL2L11			-0.321684833333333	-0.278834777777778
CJUN_pS73	JUN	S73		0.544233846153846	0.233735545454545
CKIT	KIT			-0.325974615384615	-0.420542727272727
CMET_pY1235	MET	Y1235		-0.104097666666667	-0.123320981818182
CMYC	MYC			0.785165	-0.136241
CRAF	RAF1			0.4123525	0.159952090909091
CRAF_pS338	RAF1	S338		0.398695166666667	0.133087
CASPASE7CLEAVEDD198	CASP7			-1.3201725	-1.12228555555556
CAVEOLIN1	CAV1			0.205087692307692	-2.63696363636364
CD31	PECAM1			-0.1965355	0.051128
CD49B	ITGA2			-0.0451653333333333	0.161640909090909
CDK1	CDK1			0.373339230769231	0.222057645454545
CHK1	CHEK1			0.126928	0.0062
CHK1_pS345	CHEK1	S345		0.193959416666667	0.0857965666666667
CHK2	CHEK2			0.132081333333333	0.316233333333333
CHK2_pT68	CHEK2	T68		0.147089972727273	0.133493333333333
CIAP	BIRC2			0.349100833333333	0.241307363636364
CLAUDIN7	CLDN7			-0.1217475	0.781433333333333
COLLAGENVI	COL6A1			-0.842515384615385	-0.868318181818182
CYCLINB1	CCNB1			2.0428	1.28449454545455
CYCLIND1	CCND1			-0.190717	-0.131498454545455
CYCLINE1	CCNE1			0.0075746923076923	0.103672818181818
DJ1	PARK7			-0.404792727272727	-0.274546555555556
DVL3	DVL3			0.25857	0.0381481818181818
ECADHERIN	CDH1			-1.66003384615385	0.0331927272727273
EEF2	EEF2			0.328259	0.432571555555556
EEF2K	EEF2K			0.328234181818182	0.726578888888889
EGFR	EGFR			1.22365692307692	-0.0959609090909091
EGFR_pY1068	EGFR	Y1068		0.245452727272727	1.27845344444444
EGFR_pY1173	EGFR	Y1173		-0.174562153846154	-0.168448363636364
EIF4E	EIF4E			0.166232530769231	0.225374636363636
ERALPHA	ESR1			-1.8912	-0.135913636363636
ERALPHA_pS118	ESR1	S118		-0.566116153846154	-0.354184545454545
ERK2	MAPK1			-0.0997725	-0.371955
FIBRONECTIN	FN1			-2.00701384615385	-2.6701
FOXO3A	FOXO3			0.0369347153846154	0.0540201818181818
GAB2	GAB2			-0.128178333333333	-0.61143
GATA3	GATA3			-0.202823333333333	1.09532333333333
GSK3ALPHABETA	GSK3B			0.0675685	0.379067727272727
GSK3ALPHABETA_pS21S9	GSK3A	S21|S9		0.719338461538461	0.879517090909091
HER2	ERBB2			-0.0333313076923077	2.29049727272727
HER2_pY1248	ERBB2	Y1248		0.227043923076923	1.09840545454545
HER3	ERBB3			-0.664981818181818	0.328024444444444
HER3_pY1289	ERBB3	Y1289		0.00893033333333333	0.385999444444444
HSP70	HSPA1A			-1.97975	-1.430325
IGFBP2	IGFBP2			-1.26323461538462	-0.171376563636364
INPP4B	INPP4B			-0.319117	0.6336
IRS1	IRS1			0.381914615384615	0.018259
JNK_pT183PY185	MAPK8	T183|Y185		-0.106519166666667	-0.104868272727273
JNK2	MAPK9			0.1162405	0.581623
KU80	XRCC5			0.01701	-0.229165
LCK	LCK			-1.09399174615385	-1.27455090909091
LKB1	STK11			-0.127098333333333	0.159666
MAPK_pT202Y204	MAPK1	T202|Y204		0.154030923076923	-0.363374
MEK1	MAP2K1			0.821122983333333	0.469643818181818
MEK1_pS217S221	MAP2K1	S217|S221		0.222594615384615	-0.0206109481818182
MIG6	ERRFI1			0.254660416666667	0.0292111111111111
MRE11	MRE11			-0.0564066666666667	0.112688
MTOR	MTOR			0.292178615384615	0.255839627272727
MTOR_pS2448	MTOR	S2448		0.678349538461538	0.657465454545455
NCADHERIN	CDH2			-0.095634	-0.559869722222222
NFKBP65_pS536	NFKB1	S536		1.06851869230769	0.447575727272727
NF2	NF2			-0.203420727272727	0.0693733333333333
NOTCH1	NOTCH1			0.545746363636364	0.418503777777778
PCADHERIN	CDH3			-0.0169296666666667	0.023150775
P27	CDKN1B			-0.454736923076923	0.00682518181818181
P27_pT157	CDKN1B	T157		0.0400758833333333	-0.0179592222222222
P38MAPK	MAPK14			0.12434	0.46599225
P38_pT180Y182	MAPK14	T180|Y182		-0.568120769230769	-0.715004545454546
P53	TP53			0.723463846153846	0.487372181818182
P70S6K	RPS6KB1			0.0711336153846154	0.255642118181818
P70S6K_pT389	RPS6KB1	T389		1.74161538461538	1.76810909090909
P90RSK_pT359S363	RPS6KA1	T359|S363		0.452847	0.31237
PAI1	SERPINE1			0.830396666666667	-0.470308888888889
PAXILLIN	PXN			0.449446818181818	0.233201111111111
PCNA	PCNA			0.557434461538462	0.572339
PDK1_pS241	PDPK1	S241		-0.102101546153846	0.487087636363636
PEA15	PEA15			-0.421963181818182	-0.153611111111111
PI3KP110ALPHA	PIK3CA			0.26710875	0.294072222222222
PKCALPHA	PRKCA			0.361863846153846	-0.821311818181818
PKCALPHA_pS657	PRKCA	S657		0.457727153846154	-0.696983727272727
PKCDELTA_pS664	PRKCD	S664		0.0204250833333333	-0.0430714545454545
PR	PGR			-0.283787538461538	-0.0872077272727273
PRAS40_pT246	AKT1S1	T246		0.772167333333333	0.609478888888889
PTEN	PTEN			-1.19043523076923	-0.174803
RAD50	RAD50			-0.270560181818182	-0.281435555555556
RAD51	RAD51			0.242272583333333	0.142932711111111
RB_pS807S811	RB1	S807|S811		1.81614353846154	1.84623909090909
S6	RPS6			0.388046666666667	-0.07085
S6_pS235S236	RPS6	S235|S236		2.17222	2.22478454545455
S6_pS240S244	RPS6	S240|S244		2.60293076923077	2.60160545454545
SHC_pY317	SHC1	Y317		0.145511583333333	0.187327090909091
SMAD1	SMAD1			-0.0740838708333333	0.106839090909091
SMAD3	SMAD3			0.108415230769231	-0.252218272727273
SMAD4	SMAD4			-0.2211085	-0.202878818181818
SRC	SRC			-0.678907692307692	-0.485201818181818
SRC_pY416	SRC	Y416		-0.185988846153846	-0.240539454545455
SRC_pY527	SRC	Y527		0.827354384615385	0.704844727272727
STAT3_pY705	STAT3	Y705		-0.563755384615385	-0.585955454545455
STAT5ALPHA	STAT5A			-0.769372666666667	-1.00447888888889
STATHMIN	STMN1			-0.0426266666666667	-0.113837333333333
SYK	SYK			-3.06128	-2.44526909090909
TUBERIN	TSC2			0.398211923076923	0.212857272727273
VEGFR2	KDR			-0.0306303076923077	0.0294800909090909
XRCC1	XRCC1			-0.121319416666667	-0.083031
YAP	YAP1			-0.3355833	-0.468975555555556
YAP_pS127	YAP1	S127		-0.320294	-0.547425636363636
YB1	YBX1			0.127801416666667	-0.232809090909091
YB1_pS102	YBX1	S102		0.473883333333333	0.159557272727273
X4EBP1_pT70	EIF4EBP1	T70		0.214288	0.3339445
ARAF_pS299	ARAF	S299		0.10939	0.45751
ANNEXINVII	ANXA7			-0.156276	0.124697977777778
ARID1A	ARID1A			0.1800435	-0.01178097
BRAF	BRAF			0.298462846153846	0.328255454545455
BAD_pS112	BAD	S112		0.0348793076923077	-0.211334454545455
BAP1C4	BAP1			0.479425	-0.2435
BRCA2	BRCA2			-0.239573461538462	-0.129706454545455
CD20	MS4A1			-0.29035	-0.04249275
CYCLINE2	CCNE2			0.0218733333333333	0.081475
ETS1	ETS1			-0.264898818181818	-0.877605888888889
EIF4G	EIF4G1			0.722002727272727	0.538252222222222
FASN	FASN			0.657489181818182	2.54886222222222
FOXO3A_pS318S321	FOXO3	S318|S321		-0.0282731538461538	-0.193843090909091
FOXM1	FOXM1			1.45666090909091	1.18543
G6PD	G6PD			0.211740109090909	1.40366222222222
GAPDH	GAPDH			-0.753032727272727	0.562243333333333
GSK3_pS9	GSK3B	S9		1.16953153846154	1.11928545454545
HEREGULIN	NRG1			0.267276181818182	-0.107739111111111
MYH11	MYH11			-1.8385	-1.90505
MYOSINIIA_pS1943	MYH9	S1943		-0.187882818181818	-0.428265555555556
NRAS	NRAS			-0.162971363636364	-0.0256092888888889
NDRG1_pT346	NDRG1	T346		0.704240909090909	0.153731555555556
P21	CDKN1A			-0.0315484923076923	-0.239795090909091
P27_pT198	CDKN1B	T198		0.00715109166666667	0.119415444444444
P90RSK	RPS6KA1			0.0538766666666667	0.430671454545455
PDCD4	PDCD4			-0.271758181818182	-0.0164167777777778
PDK1	PDPK1			-0.0552038461538462	0.349871272727273
PEA15_pS116	PEA15	S116		-0.519476363636364	-0.552418555555556
PI3KP85	PIK3R1			-0.5076475	-0.526868888888889
PKCPANBETAII_pS660	PRKCB	S660		-0.0637416545454545	-0.16705
PRDX1	PRDX1			0.1043885	1.09077
RAB11	RAB11A			-0.28651	-0.103189777777778
RAB25	RAB25			-0.894989275	0.135808181818182
RAPTOR	RPTOR			0.0434490833333333	-0.0261145727272727
RBM15	RBM15			0.459302909090909	-0.238469666666667
RICTOR	RICTOR			0.627134	0.200888818181818
RICTOR_pT1135	RICTOR	T1135		0.816598181818182	0.628328444444444
SCD	SCD			0.120077681818182	0.505783333333333
SF2	SRSF1			-0.0604438363636364	0.192245444444444
TAZ	WWTR1			-0.0737955583333333	-0.283329111111111
TIGAR	TIGAR			-0.306923272727273	-0.251337111111111
TRANSGLUTAMINASE	TGM2			-0.467863846153846	-0.773510909090909
TFRC	TFRC			0.735547272727273	0.136291111111111
TSC1	TSC1			0.249267181818182	0.145382888888889
TUBERIN_pT1462	TSC2	T1462		0.266131730769231	-0.008662
EPPK1	EPPK1			-2.3402	-1.7987
XBP1	XBP1			-0.25858	-0.45837
ACETYLATUBULINLYS40	TUBA1B			0.9256129	-1.875335
P62LCKLIGAND	SQSTM1			1.029015	-0.264697
X1433BETA	YWHAB			-0.204126333333333	-0.000632400000000008
X1433ZETA	YWHAZ			-0.2590475	0.0462895555555556
ACVRL1	ACVRL1			-0.320546454545455	-0.0491892222222222
DIRAS3	DIRAS3			-0.346770181818182	-0.190955555555556
ANNEXIN1	ANXA1			0.141441769230769	-1.02887863636364
PREX1	PREX1			-1.18951181818182	1.55727777777778
ENY2	ENY2			0.435135	0.800655
GCN5L2	KAT2A			0.470986181818182	0.330013
ADAR1	ADAR			-0.680597272727273	-0.426250555555556
JAB1	COPS5			-0.0237288181818182	0.213847222222222
CMET	MET			-0.0889312727272727	-0.216469111111111
CASPASE8	CASP8			0.0634362307692308	-0.221683909090909
ERCC1	ERCC1			-0.230121090909091	-0.0306312222222222
MSH2	MSH2			0.638637272727273	0.516150222222222
MSH6	MSH6			0.771181090909091	0.373174877777778
PARPCLEAVED	PARP1			0.141902516666667	0.112612777777778
RB	RB1			-0.172244846153846	-0.0412487272727273
SETD2	SETD2			-0.110870909090909	-0.0918842222222222
SMAC	DIABLO			-0.553408333333333	-0.132286727272727
SNAIL	SNAI1			0.320827818181818	0.105241333333333
AXL	AXL			2.3725	-0.3070465
MYOSINIIA	NA			0.280015	-0.1996755
SLC1A5	SLC1A5			1.807	0.64946
GATA6	GATA6			0.742925	0.77502
BRD4	BRD4			0.489705	-0.8407
CDK1_pY15	CDK1	Y15		0.772125	1.05138
ARAF	ARAF			0.0664379090909091	0.61116
BRAF_pS445	BRAF	S445		0.163707141666667	0.421515909090909
BCL2A1	BCL2A1			-0.05499675	0.528795
CABL	ABL1			-0.18765	0.1022075
CASPASE3	CASP3			0.108475	0.1231165
CD26	DPP4			-0.187075	0.55439
CHK1_pS296	CHEK1	S296		0.339345	0.4762
COG3	COG3			-0.223765	-0.19375
DUSP4	DUSP4			0.86726	2.26875
ERCC5	ERCC5			-0.38324	-0.174315
IGF1R_pY1135Y1136	IGF1R	Y1135|Y1136		0.114895	0.13376825
IRF1	IRF1			0.19522	-0.2634015
JAK2	JAK2			-0.253065	-0.2523485
P16INK4A	CDKN2A			0.518942727272727	-0.402427777777778
SHP2_pY542	PTPN11	Y542		0.794925	0.14493
PARP1	PARP1			0.402943554545455	0.0922042777777778
GYS	GYS1			-1.13207	-0.603052571428571
GYS_pS641	GYS1	S641		-0.407571111111111	-0.139937428571429
PKM2	PKM			-0.434055777777778	-0.188864714285714
CASPASE9	CASP9			-0.049365	0.078939
E2F1	E2F1			0.172854544444444	0.169536857142857
TTF1	NKX2-1			-0.982201111111111	-1.1674
NAPSINA	NAPSA			-0.112369222222222	-0.147562714285714
ALPHACATENIN	CTNNA1			-0.0680999999999999	-0.06496
ATM_pS1981	ATM	S1981		-0.0768815	-0.0564138571428571
ATP5H	ATP5PD			-0.1925872	-0.0330161428571429
ATR	ATR			0.0445286	-0.00538357142857143
BCATENIN_pT41S45	CTNNB1	T41|S45		0.298371111111111	0.126449571428571
BAP1	BAP1			0.0683240666666667	-0.135748142857143
CASPASE9CLEAVED	CASP9			-0.1588065	-0.085865
CD29	ITGB1			0.0264304444444444	-0.0395164857142857
COMPLEXIISUBUNIT	SDHB			-0.114960777777778	-0.160325
COXIV	COX4I1			-0.106866111111111	-0.0888413714285714
COX2	PTGS2			0.495288272727273	-0.163295666666667
CYCLOPHILINF	PPIF			-0.152032	0.083276
ELK1_pS383	ELK1	S383		-0.305185	-1.00621
FAK	PTK2			0.0838971818181818	0.063597
FAK_pY397	PTK2	Y397		-0.112118888888889	-0.212702257142857
GPBB	PYGB			-0.147237222222222	-0.260636714285714
HISTONEH3	H3F3A			-0.404117777777778	-0.551247142857143
HSP27	HSPB1			0.5365705	0.039764
IGFRB	FCGR1B			-0.264679727272727	-0.0862928888888889
MCL1	MCL1			0.317631177777778	-0.114381428571429
MDM2_pS166	MDM2	S166		0.139425	0.0213487414285714
MEK2	MAP2K2			-0.0395017777777778	-0.0987087142857143
MYOSIN11	MYH11			0.318258222222222	-0.0820697142857143
NOTCH3	NOTCH3			0.4503184	-0.0541687142857143
P38	MAPK14			-0.0615254566666667	0.242771714285714
PDCD1L1	CD274			-0.0890271111111111	0.217827428571429
PDGFRB	PDGFRB			1.30836111111111	0.0696375714285714
PLCGAMMA2_pY759	PLCG2	Y759		0.06707	0.19573
PLK1	PLK1			0.31426	-0.149359
PORIN	VDAC1			-0.0438869777777778	-0.149782857142857
RHEB	RHEB			-0.10795	-0.125543
STAT3	STAT3			0.011465	-0.2386
TAU	MAPT			0.16641	0.038053
TWIST	TWIST1			0.0163671111111111	-0.0299214285714286
TYRO3	TYRO3			-0.287682222222222	-0.231175285714286
UBAC1	UBAC1			0.0322124444444444	0.184563571428571
UGT1A	UGT1A			-0.161720888888889	0.103702714285714
UQCRC2	UQCRC2			-0.136289444444444	-0.0383272142857143
ATR_pS428	ATR	S428		0.144037333333333	-0.197675428571429
CRM1	XPO1			0.0907255555555555	-0.312236714285714
EPHA2_pT594	EPHA2	T594		-0.147968888888889	0.26986
FLT3FLK2	FLT3			-0.114474777777778	-0.0720068571428571
H2AX_pS139	H2AFX	S139		-0.419917777777778	-0.453305714285714
JAGGED1	JAG1			1.01497777777778	-0.490487142857143
SNF5	SMARCB1			0.122098444444444	0.132976671428571
BETACATENIN_pS33S37T41	CTNNB1	S33|S37|T41		-0.92753	-0.315065
MDM2	MDM2			-0.039921	-0.245405
CASPASE3CLEAVED	CASP3			-0.214963	-0.004155
COFILIN_pS3	CFL1	S3		-0.248316	-0.938865
COMT	COMT			0.972755	0.2738435
EIF2A_pS51	EIF2A	S51		-0.51471	-0.378615
HLAE	HLA-E			0.41805	-0.058335
IRS1_pS307	IRS1	S307		0.82694	0.53044
MME	MME			0.40462	-0.028105
P70S6K_pS371	RPS6KB1	S371		0.97079	0.89134
STAT5_pY694	STAT5A	Y694		-0.6914	-0.709348045
TAZ_pS79	TAZ	S79		-0.36514	-0.35845
TELOMERASE	NA			-0.229808	-0.097058
VASP	VASP			-0.301615	0.033235
ZNF342	ZNF296			0.60915	-0.039795
CDK4	CDK4			-0.31984	-0.27356
CJUN	JUN			-2.2606	-2.21985
CMYC_pT58S62	MYC	T58|S62		-0.48619	-0.98073
SGK	SGK1			-1.4074	-0.839495
SGK_pS78	SGK1	S78		-1.0283	-0.60841
LKB1_pS428	STK11	S428		-0.58252	-0.10835
EGR2	EGR2			-2.1039	-1.433265
BCL6	BCL6			-0.47838	-0.338925
BLIMP1	PRDM1			-0.59693	-0.67827
BLNK_pY84	BLNK	Y84		0.83016	0.334072
BLNK_pY96	BLNK	Y96		0.2184	-0.1512915
BLNK	BLNK			0.42482	0.437435
CABL_pT735	ABL1	T735		-0.46617	-0.87031
CKIT_pY703	KIT	Y703		-0.13682	-0.583735
CREL	REL			-1.5224	0.107425
CD19	CD19			2.0667	1.495
CD38	CD38			1.3294	0.567373
CD55	CD55			1.6671	0.58461
CO86	NA			-1.2325	-0.488525
CYCLINE4	NA			-0.047325	0.185305
CLIP115	CLIP2			0.0082554	-0.11231845
DNMT1	DNMT1			-0.18757	-0.47007
DNMT3A	DNMT3A			-0.030949	0.0190355
EGFR_pY992	EGFR	Y992		0.38791	0.25084
EGR1	EGR1			-1.4455	-1.017775
EIF4G1_pS1108	EIF4G1	S1108		0.10241	-0.13658
ENOS_pS1177	NOS3	S1177		0.67181	0.51343
ETV6	ETV6			-0.24065	-0.3553
FAS	FAS			2.4618	1.8731
GPR82	GPR82			0.19072	-0.1947945
HISTONEH2AX_pS139	H2AFX	S139		0.22328	0.039605
HISTONEH3_pS10	HIST1H3A	S10		0.17275	0.171146
ID2	ID2			1.6569	0.681395
ID3	ID3			1.5078	-0.638355
IRF4	IRF4			1.0902	0.41631
KI67	MKI67			-1.0921	-0.129466
LAT_pY191	LAT	Y191		-0.030988	-0.35864
LAT	LAT			1.2135	0.70634
PAX5	PAX5			-0.44288	-0.2917185
PLCGAMMA1_pY783	PLCG1	Y783		0.70795	0.364665
PLCGAMMA1	PLCG1			-0.10522	0.369005
PLCGAMMA2_pY1217	PLCG1	Y1217		0.56811	0.0609005
PLCGAMMA2	PLCG2			-0.054913	-0.096025
PLK1_pT210	PLK1	T210		-0.61657	-0.21323
PYK2_pY402	PTK2B	Y402		0.14255	0.15527
SPIB	SPIB			-0.38555	-0.348133
SYK_pY323	SYK	Y323		0.68999	-0.001775
SYK_pY352	SYK	Y352		-0.0001687	-0.222605
SYK_pY525Y526	SYK	Y525|Y526		0.39141	0.323245
DNATOPOISOMERASE2ALPHA	TOP2A			-0.3868	0.77442
DNATOPOISOMERASE2BETA	TOP2B			0.070196	-0.02198815
TRAF1	TRAF1			-0.40546	-0.284685
X1433SIGMA	SFN			1.5394	0.18299
ALPHATUBULIN	NA			-1.9508	-0.159206
BCRYSTALLIN	NA			-2.4006	-1.66633
CASEINKINASEIALPHA	CSNK1A1			-0.67063	0.1572585
CASEINKINASE	NA			-0.62515	0.101415
CASK	CASK			0.74457	0.2856405
CAVEOLIN2	CAV2			-4.2887	-3.0942
CD11	NA			-0.25112	0.138185
COFILIN	CFL1			0.33503	0.25255
CREB	NA			0.31117	0.28147
CULLIN2	CUL2			0.049255	-0.221323
ERG123	NA			-0.46445	-0.016336
EZRIN_pY353	EZR	Y353		0.10231	0.2829105
FAK_pY925	PTK2	Y925		-0.15349	-0.05545
GAB2_pY452	GAB2	Y452		0.15827	0.29335
JAK1	JAK1			0.4538	0.09329
JUNB	JUNB			-0.81434	-0.0913925
NEUROPILIN1	NRP1			1.7851	0.32119
NUR77	NR4A1			0.23359	-0.256485
PKCDELTA_pT507	PRKCD	T507		-1.163	1.043375
SMAD6	SMAD6			0.68606	0.16256
TCF4	TCF4			0.016472	0.008733
TIF1ALPHA	TRIM24			-0.30478	-0.75973
